…
``` r
ChlA_Data_Porter <- 
  readr::read_csv(file = "ChlA-Data/ChlA-Data.csv",
                  col_types = "ccccdcddddddddc") %>%
  filter(Site == "Porter_Above") %>%
  group_by(Date_collected, Site_1)
```

    ## Warning: Duplicated column names deduplicated: 'Site' => 'Site_1' [4]

``` r
ChlA_Data_Porter
```

    ## # A tibble: 72 x 15
    ## # Groups:   Date_collected, Site_1 [20]
    ##    Site  Date_collected Date_processed Site_1 Cobble_SID Pool_or_Riffle
    ##    <chr> <chr>          <chr>          <chr>       <dbl> <chr>         
    ##  1 Port… 5/1/18         5/2/18         Frog_…          1 riffle        
    ##  2 Port… 5/1/18         5/2/18         Frog_…          5 riffle        
    ##  3 Port… 5/1/18         5/2/18         Frog_…          7 pool          
    ##  4 Port… 5/1/18         5/2/18         Frog_…         11 pool          
    ##  5 Port… 5/1/18         5/2/18         Jesus…          8 riffle        
    ##  6 Port… 5/1/18         5/2/18         Jesus…          9 riffle        
    ##  7 Port… 5/1/18         5/2/18         Jesus…         15 pool          
    ##  8 Port… 5/1/18         5/2/18         Jesus…         16 pool          
    ##  9 Port… 5/1/18         5/2/18         Golf_…          4 riffle        
    ## 10 Port… 5/1/18         5/2/18         Golf_…          6 riffle        
    ## # ... with 62 more rows, and 9 more variables: Volume_mL <dbl>,
    ## #   Volume_Added_mL <dbl>, Canister_Num <dbl>, Chla_reading <dbl>,
    ## #   Total_Chla_extracted <dbl>, Total_Chla_in_Sample <dbl>,
    ## #   Chla_area <dbl>, Cobble_Area <dbl>, Notes <chr>
…
    ## Warning: Duplicated column names deduplicated: 'Site' => 'Site_1' [4]

    ## Warning in rbind(names(probs), probs_f): number of columns of result is not
    ## a multiple of vector length (arg 1)

    ## Warning: 19 parsing failures.
    ## row # A tibble: 5 x 5 col     row col   expected actual                            file              expected   <int> <chr> <chr>    <chr>                             <chr>             actual 1    30 Notes a double Odd donut shape in filter         'ChlA-Data/AFD-D… file 2    33 Notes a double very small amount of algae scrap… 'ChlA-Data/AFD-D… row 3    48 Notes a double in oven at 5:10 PM                'ChlA-Data/AFD-D… col 4    64 Notes a double in oven at 5:45 PM                'ChlA-Data/AFD-D… expected 5    69 Notes a double MELTED IN OVEN REDO               'ChlA-Data/AFD-D…
    ## ... ................. ... .......................................................................... ........ .......................................................................... ...... .......................................................................... .... .......................................................................... ... .......................................................................... ... .......................................................................... ........ ..........................................................................
    ## See problems(...) for more details.

``` r
AFD_Data_Porter
```

    ## # A tibble: 72 x 7
    ## # Groups:   Date_collected, Site_1 [20]
    ##    Date_collected Site_1 Cobble_SID Pool_or_Riffle Dry_Weight_g
    ##    <chr>          <chr>       <dbl> <chr>                 <dbl>
    ##  1 5/1/18         Frog_…          1 riffle                 1.14
    ##  2 5/1/18         Frog_…          5 riffle                 1.18
    ##  3 5/1/18         Frog_…          7 pool                   1.16
    ##  4 5/1/18         Frog_…         11 pool                   1.15
    ##  5 5/1/18         Jesus…          8 riffle                 1.14
    ##  6 5/1/18         Jesus…          9 riffle                 1.14
    ##  7 5/1/18         Jesus…         15 pool                   1.15
    ##  8 5/1/18         Jesus…         16 pool                   1.15
    ##  9 5/1/18         Golf_…          4 riffle                 1.15
    ## 10 5/1/18         Golf_…          6 riffle                 1.14
    ## # ... with 62 more rows, and 2 more variables: AFD_Weight_g <dbl>,
    ## #   Difference <dbl>
…
    ## Warning in rbind(names(probs), probs_f): number of columns of result is not
    ## a multiple of vector length (arg 1)

    ## Warning: 50 parsing failures.
    ## row # A tibble: 5 x 5 col     row col        expected actual            file                         expected   <int> <chr>      <chr>    <chr>             <chr>                        actual 1     1 MaxDepth_… a double n/a (did not mea… 'Photosynthesis/2018-Photos… file 2     1 MaxDepth_… a double n/a               'Photosynthesis/2018-Photos… row 3     1 MaxDepth_… a double n/a               'Photosynthesis/2018-Photos… col 4     2 MaxDepth_… a double n/a               'Photosynthesis/2018-Photos… expected 5     2 MaxDepth_… a double n/a               'Photosynthesis/2018-Photos…
    ## ... ................. ... .......................................................................... ........ .......................................................................... ...... .......................................................................... .... .......................................................................... ... .......................................................................... ... .......................................................................... ........ ..........................................................................
    ## See problems(...) for more details.

``` r
DO_Data_Porter
```

    ## # A tibble: 72 x 10
    ##    Stream Date  Site_Name Site_Num Pool_Riffle Max_Depth_DO Light_Do_s
    ##    <chr>  <chr> <chr>        <dbl> <chr>              <dbl>      <dbl>
    ##  1 Porter 5/1/… Frog_Legs     18.1 R                   10.4       10.0
    ##  2 Porter 5/1/… Frog_Legs     18.1 R                   10.4       10.6
    ##  3 Porter 5/1/… Frog_Legs     18.1 P                   10.4       10.6
    ##  4 Porter 5/1/… Frog_Legs     18.1 P                   10.4       10.6
    ##  5 Porter 5/1/… Jesus_To…     18.2 R                   10.1       10.4
    ##  6 Porter 5/1/… Jesus_To…     18.2 R                   10.1       10.5
    ##  7 Porter 5/1/… Jesus_To…     18.2 P                   10.1       10.5
    ##  8 Porter 5/1/… Jesus_To…     18.2 P                   10.1       10.5
    ##  9 Porter 5/1/… Golf_Ball     18.3 R                   10.0       10.6
    ## 10 Porter 5/1/… Golf_Ball     18.3 R                   10.0       10.5
    ## # ... with 62 more rows, and 3 more variables: Light_DO_e <dbl>,
    ## #   Dark_Do_s <dbl>, Dark_DO_e <dbl>
…
    ## Warning in rbind(names(probs), probs_f): number of columns of result is not
    ## a multiple of vector length (arg 1)

    ## Warning: 2006 parsing failures.
    ## row # A tibble: 5 x 5 col     row col               expected   actual   file                         expected   <int> <chr>             <chr>      <chr>    <chr>                        actual 1     1 Time_Per_Pass_Se… a double   N/A      'FishPopulation/EFishingDat… file 2     1 <NA>              35 columns 40 colu… 'FishPopulation/EFishingDat… row 3     2 Time_Per_Pass_Se… a double   N/A      'FishPopulation/EFishingDat… col 4     2 <NA>              35 columns 40 colu… 'FishPopulation/EFishingDat… expected 5     3 Time_Per_Pass_Se… a double   N/A      'FishPopulation/EFishingDat…
    ## ... ................. ... .......................................................................... ........ .......................................................................... ...... .......................................................................... .... .......................................................................... ... .......................................................................... ... .......................................................................... ........ ..........................................................................
    ## See problems(...) for more details.

``` r
EFishing_Data
```

    ## # A tibble: 524 x 35
    ##    Date  Stream Unit  Fish_Num_Per_Si… Fish_Num Pass_Num Time_Per_Pass_S…
    ##    <chr> <chr>  <chr>            <dbl>    <dbl>    <dbl>            <dbl>
    ##  1 5/23… Porter 18.1…               51      120        1              289
    ##  2 5/23… Porter 18.1…               52      121        1              289
    ##  3 5/23… Porter 18.1…               53      122        1              289
    ##  4 5/23… Porter 18.1…               54      123        1              289
    ##  5 5/23… Porter 18.1…               55      124        1              289
    ##  6 5/23… Porter 18.1…               56      125        1              289
    ##  7 5/23… Porter 18.1…               57      126        1              289
    ##  8 5/23… Porter 18.1…               58      127        1              289
    ##  9 5/23… Porter 18.1…               59      128        1              289
    ## 10 5/23… Porter 18.1…               60      129        1              289
    ## # ... with 514 more rows, and 28 more variables: Start_Time <time>,
    ## #   End_Time <time>, Length_mm <dbl>, Weight_g <dbl>, Species <chr>,
    ## #   Recapture <dbl>, PIT <chr>, Fecal_Num <chr>, Mort <dbl>, Notes <chr>,
    ## #   Fin <chr>, Stage <dbl>, `Pool Length` <dbl>, Width_1 <dbl>,
    ## #   Width_2 <dbl>, Width_3 <dbl>, Max_Depth_cm <dbl>, DS_RCT_cm <dbl>,
    ## #   `SeaGrant HabID` <chr>, Fat1 <dbl>, Fat2 <dbl>, Fat3 <dbl>,
    ## #   Fat4 <dbl>, Fat5 <dbl>, Fat6 <dbl>, Fat7 <dbl>, Fat8 <dbl>,
    ## #   Fat_AVG <dbl>
…
``` r
Porter_FlowData
```

    ## # A tibble: 247 x 3
    ##    Date    Streamflow_cfs Streamflow_gpm
    ##    <chr>            <dbl>          <dbl>
    ##  1 1/1/18           0.470           210.
    ##  2 1/10/18         13.2            5893.
    ##  3 1/11/18          7.14           3197.
    ##  4 1/12/18          4.74           2126.
    ##  5 1/13/18          3.44           1540.
    ##  6 1/14/18          2.69           1206.
    ##  7 1/15/18          2.19            983.
    ##  8 1/16/18          2.07            925.
    ##  9 1/17/18          1.75            782.
    ## 10 1/18/18          1.95            874.
    ## # ... with 237 more rows
…
``` r
Porter_AugmentationData
```

    ## # A tibble: 367 x 3
    ##       X1 Date    avg_gpm
    ##    <int> <chr>     <dbl>
    ##  1     1 1/3/18  73.2   
    ##  2     2 1/4/18  25.1   
    ##  3     3 1/5/18   0.0208
    ##  4     4 1/6/18   0.0625
    ##  5     5 1/7/18   0     
    ##  6     6 1/8/18   0.167 
    ##  7     7 1/9/18   0.0625
    ##  8     8 1/10/18  0.125 
    ##  9     9 1/11/18  0.146 
    ## 10    10 1/12/18  0.0417
    ## # ... with 357 more rows

Movement Data
=============

``` r
PIT_Data <- 
  readr::read_csv(file = "FishPopulation/POR_MovementStudy.csv",
                  col_types = "cccctccccc") %>%
  mutate(PIT = str_extract(PITNumber, "06....")) %>%
  select(Species_Lookup, PIT, Date_Lookup, Date, Time, Site, HabitatType, UnitNumber, Survey, Comments) 
PIT_Data
```

    ## # A tibble: 624 x 10
    ##    Species_Lookup PIT   Date_Lookup Date  Time  Site  HabitatType
    ##    <chr>          <chr> <chr>       <chr> <tim> <chr> <chr>      
    ##  1 COHO SALMON    068D… 6/7/18      6/7/… 12:15 POR 1 POOL       
    ##  2 COHO SALMON    068D… 6/7/18      6/8/… 13:28 POR … (blank)    
    ##  3 COHO SALMON    068D… 6/7/18      6/12… 19:57 POR … (blank)    
    ##  4 COHO SALMON    068D… 6/7/18      6/7/… 12:44 POR 1 POOL       
    ##  5 COHO SALMON    068D… 6/7/18      6/8/… 13:42 POR … (blank)    
    ##  6 COHO SALMON    068D… 6/7/18      6/8/… 20:35 POR … (blank)    
    ##  7 COHO SALMON    068D… 6/7/18      6/7/… 12:23 POR 1 POOL       
    ##  8 COHO SALMON    068D… 6/7/18      6/8/… 13:35 POR … (blank)    
    ##  9 COHO SALMON    068D… 6/7/18      6/9/… 05:15 POR … (blank)    
    ## 10 COHO SALMON    06A7… 6/7/18      6/7/… 11:14 POR 1 POOL       
    ## # ... with 614 more rows, and 3 more variables: UnitNumber <chr>,
    ## #   Survey <chr>, Comments <chr>
…
``` r
EFish_Movement_Data <- left_join(PIT_Data, CombiningMovement_Efish, by = "PIT") %>%
  select(Species, PIT, Date_Lookup, Date.x, Time, Site, UnitNumber, Survey, Unit, Fish_Num_Per_Site, Fish_Num, Length_mm, Weight_g, Recapture, Fat_AVG, Comments) %>%
  mutate(Survey_tally = if_else(Survey == "ANT", 1, 0)) %>%
  group_by(Date.x) %>%
  mutate(Movement_tally = cumsum(Survey_tally)) %>%
  mutate(Max_Ping_Tally = max(Movement_tally)) %>%
  arrange(Date.x, Time) %>%
  filter(!Species == "Cottus_spp")
EFish_Movement_Data
```

    ## # A tibble: 995 x 19
    ## # Groups:   Date.x [68]
    ##    Species PIT   Date_Lookup Date.x Time  Site  UnitNumber Survey Unit 
    ##    <chr>   <chr> <chr>       <chr>  <tim> <chr> <chr>      <chr>  <chr>
    ##  1 Omykiss 06A7… 6/7/18      6/10/… 02:00 POR … (blank)    ANT    18.6 
    ##  2 Okisut… 06A8… 6/7/18      6/10/… 05:19 POR … (blank)    ANT    18.6 
    ##  3 Okisut… 06A8… 6/7/18      6/10/… 05:19 POR … (blank)    ANT    18.6 
    ##  4 Omykiss 068D… 6/7/18      6/10/… 05:45 POR … (blank)    ANT    18.55
    ##  5 Okisut… 06A7… 6/7/18      6/10/… 06:02 POR … (blank)    ANT    18.6 
    ##  6 Okisut… 06A7… 6/7/18      6/10/… 06:02 POR … (blank)    ANT    18.6 
    ##  7 Omykiss 06A8… 6/4/18      6/10/… 09:54 POR … (blank)    ANT    18.3 
    ##  8 Omykiss 068D… 6/7/18      6/10/… 15:39 POR … (blank)    ANT    18.55
    ##  9 Omykiss 068D… 6/7/18      6/10/… 17:29 POR … (blank)    ANT    18.5 
    ## 10 Okisut… 06A7… 6/7/18      6/10/… 18:26 POR … (blank)    ANT    18.6 
    ## # ... with 985 more rows, and 10 more variables: Fish_Num_Per_Site <dbl>,
    ## #   Fish_Num <dbl>, Length_mm <dbl>, Weight_g <dbl>, Recapture <dbl>,
    ## #   Fat_AVG <dbl>, Comments <chr>, Survey_tally <dbl>,
    ## #   Movement_tally <dbl>, Max_Ping_Tally <dbl>

``` r
Augmentation_MovementData <- EFish_Movement_Data %>%
  distinct(Max_Ping_Tally) %>%
  left_join(Porter_AugmentationData, EFish_Movement_Data, by = c("Date.x" = "Date")) %>%
  arrange(X1) %>%
  select(X1, Date.x, Max_Ping_Tally, avg_gpm) %>%
  filter(!X1 == "NA") 
  names(Augmentation_MovementData)[2] <- "Date"
Augmentation_MovementData 
```

    ## # A tibble: 68 x 4
    ## # Groups:   Date.x [68]
    ##       X1 Date    Max_Ping_Tally avg_gpm
    ##    <int> <chr>            <dbl>   <dbl>
    ##  1   153 6/4/18               0  0.132 
    ##  2   155 6/6/18               5  0.0417
    ##  3   156 6/7/18              24  0.194 
    ##  4   157 6/8/18              47  0.0417
    ##  5   158 6/9/18              29  0     
    ##  6   159 6/10/18             15  0.174 
    ##  7   160 6/11/18             26  0     
    ##  8   161 6/12/18             13  0.0417
    ##  9   162 6/13/18              6  0.312 
    ## 10   165 6/16/18              2  0.0208
    ## # ... with 58 more rows
…
Movement Data vs Discharge Data
-------------------------------

``` r
Flow_MovementData <- EFish_Movement_Data %>%
  distinct(Max_Ping_Tally) %>%
  left_join(Porter_FlowData, EFish_Movement_Data, by = c("Date.x" = "Date")) %>%
  select(Date.x, Max_Ping_Tally, Streamflow_gpm) %>%
  filter(!Date.x == "NA")
  names(Flow_MovementData)[1] <- "Date"
Flow_MovementData
```

    ## # A tibble: 68 x 3
    ## # Groups:   Date.x [68]
    ##    Date    Max_Ping_Tally Streamflow_gpm
    ##    <chr>            <dbl>          <dbl>
    ##  1 6/10/18             15           242.
    ##  2 6/11/18             26           234.
    ##  3 6/12/18             13           229.
    ##  4 6/13/18              6           212.
    ##  5 6/16/18              2           204.
    ##  6 6/18/18              1           228.
    ##  7 6/19/18              3           220.
    ##  8 6/22/18              2           175 
    ##  9 6/30/18              6           473.
    ## 10 6/4/18               0           298.
    ## # ... with 58 more rows

``` r
Flow_MovementData$Date <- as.Date(Flow_MovementData$Date, "%m/%d/%y")
Flow_MovementData
```

    ## # A tibble: 68 x 3
    ## # Groups:   Date.x [68]
    ##    Date       Max_Ping_Tally Streamflow_gpm
    ##    <date>              <dbl>          <dbl>
    ##  1 2018-06-10             15           242.
    ##  2 2018-06-11             26           234.
    ##  3 2018-06-12             13           229.
    ##  4 2018-06-13              6           212.
    ##  5 2018-06-16              2           204.
    ##  6 2018-06-18              1           228.
    ##  7 2018-06-19              3           220.
    ##  8 2018-06-22              2           175 
    ##  9 2018-06-30              6           473.
    ## 10 2018-06-04              0           298.
    ## # ... with 58 more rows
…
    ## Warning in rbind(names(probs), probs_f): number of columns of result is not
    ## a multiple of vector length (arg 1)

    ## Warning: 9 parsing failures.
    ## row # A tibble: 5 x 5 col     row col     expected actual file                                       expected   <int> <chr>   <chr>    <chr>  <chr>                                      actual 1    24 lna     a double #N/A   'Macroinvertebrate/Porter_BACI_Study_Drif… file 2    24 b       a double #N/A   'Macroinvertebrate/Porter_BACI_Study_Drif… row 3    24 biomass a double #N/A   'Macroinvertebrate/Porter_BACI_Study_Drif… col 4    44 lna     a double #N/A   'Macroinvertebrate/Porter_BACI_Study_Drif… expected 5    44 b       a double #N/A   'Macroinvertebrate/Porter_BACI_Study_Drif…
    ## ... ................. ... .......................................................................... ........ .......................................................................... ...... .......................................................................... .... .......................................................................... ... .......................................................................... ... .......................................................................... ........ ..........................................................................
    ## See problems(...) for more details.

``` r
BMI_Drift_Flux_Dataset$Date <- base::as.Date(BMI_Drift_Flux_Dataset$Date, "%m/%d/%Y")
BMI_Drift_Flux_Dataset
```

    ## # A tibble: 137 x 8
    ## # Groups:   Event, Pool [12]
    ##    Date       Test_Reach Event Pool  Duration_hrs ID    biomass
    ##    <date>     <chr>      <chr> <chr>        <dbl> <chr>   <dbl>
    ##  1 2018-07-01 Control    Befo… 18.2          1.53 Chir…  0.0319
    ##  2 2018-07-01 Control    Befo… 18.2          1.53 ter …  0.250 
    ##  3 2018-07-01 Control    Befo… 18.2          1.53 chir…  0.0221
    ##  4 2018-07-01 Control    Befo… 18.2          1.53 adul…  0.1   
    ##  5 2018-07-01 Control    Befo… 18.2          1.53 ter …  0.0126
    ##  6 2018-07-01 Control    Befo… 18.2          1.53 Hydr…  0.0350
    ##  7 2018-07-01 Control    Befo… 18.2          1.53 adul…  0.297 
    ##  8 2018-07-01 Control    Befo… 18.2          1.53 Elmi…  0.801 
    ##  9 2018-07-01 Control    Befo… 18.2          1.53 ter …  0.505 
    ## 10 2018-07-01 Control    Befo… 18.2          1.53 ter …  0.0830
    ## # ... with 127 more rows, and 1 more variable: BMI_Flux_mg_hrs <dbl>
…
